result
"'SpineBase','SpineMid','Neck','Head','ShoulderLeft','ElbowLeft','WristLeft','ShoulderRight','ElbowRight','WristRight','HipLeft','HipRight','SpineShoulder'"
"a1"
"a12p5. 0.995763686756103 1.40725464822647 0.961909704218695 0.628497373287922 1.01995017018732 2.97651381371453 4.39319499996625 1.12407541516178 2.00510542856994 2.38386817243361 1.2259167848762 1.1328227863109 0.525897712718114"
"a12p4. 0.636782730910469 0.925266514585477 0.610047008787577 0.577691299044287 1.11923414646911 3.43206946922591 5.33258976084575 0.979055061489782 1.6954761824904 2.45706899813415 1.12683331869069 0.836306807472927 1.01364312430652"
"a12p3. 0.648046052425155 1.23715800378742 0.728350341708701 0.687520634034688 1.5032273697292 3.40365029040833 6.4861512699167 0.835882115891469 1.20211466061997 1.96442248536884 1.21198571582313 0.916970282734322 1.08075010664256"
"a12p2. 1.6740459021481 0.660545476151885 NaN NaN 2.0689567645404 8.14915495463499 9.98383495008254 1.56638925382362 3.81238771301629 4.27213008292182 0.79528952566407 1.20674219952881 1.94591453288833"
"a12p1. 0.594947941430767 0.98109238465827 1.38129410462895 0.524769947791429 1.31089529165841 NaN NaN 1.41009040008023 1.79109915800491 3.38909764788676 1.65301597139655 1.48864690176146 1.33857490403955"
"a11p5. 0.489022788218033 0.793391714576537 0.762784733623229 0.498881260053141 1.08357185414688 3.37718994033169 5.72393125793583 1.13473447825012 1.47560526476169 2.75002607736505 0.949431230556558 0.788858231168042 0.889899573083738"
"a11p4. 0.825863049074828 0.640310444209009 0.471390801397624 0.48960045261621 1.18497572781033 2.75938368861573 5.42551853324488 0.950191535482037 1.73607307812194 3.68450775725412 1.09864823412576 1.04009897392025 0.519326973071815"
"a11p3. 0.939818139864514 1.09768327327792 0.494160651246477 0.711808629934951 1.22314559009873 2.85607383698374 5.13173420498102 0.683624248867713 1.47832266611517 3.00015965866438 1.25414211517897 1.03562642892879 1.00395260238084"
"a11p2. 2.31721577390975 1.4346118866942 NaN NaN 1.4679785843288 5.94164694662765 8.93944204057914 1.35625058007039 2.83427989475457 4.14565311858454 2.29052456393869 2.60906614494704 1.71188183619024"
"a11p1. 2.20367580344192 2.10459990445433 0.810762198375758 0.783961118502718 2.67651229149792 8.01121698569188 8.34193005193429 1.58004076558571 4.81927159474501 4.86112207172906 1.82496495130413 1.70691372886045 0.636258605631738"
"a2"
"a22p5. 0.630937615267548 1.340748253144 0.70282607838013 0.523988727718157 1.01293425170778 2.55176400514498 5.41387938256667 3.42638797761503 11.5855706693854 13.4111839440169 1.30733450667509 NaN 1.06697478503307"
"a22p4. 1.42785348594393 1.28186708918747 1.25544709993903 0.485196992485943 0.9020240933267 2.06153142171676 4.22627427727518 1.91888539134224 10.8310114739731 13.5386028248337 1.75291634086621 2.65804181754495 1.73845532246217"
"a22p3. 1.39633696099305 1.6306653760278 0.778207718147828 0.755434089301592 1.08860404928376 3.19985438115323 4.76312550696391 2.45251279805867 10.8332917517651 12.822679669032 1.8721834914128 2.39395779902341 1.60454432392395"
"a22p2. 2.35065869852621 0.781026680811645 NaN NaN 1.59757332594601 7.0676539507916 8.02704308716843 1.76289917488062 11.0350496678871 16.4753214471386 1.26101389243938 2.06980591135212 2.74888635177613"
"a22p1. 1.16231347135063 3.78947857394486 2.1306909412951 0.564625452367323 2.97434897071518 8.17043905439981 6.8277608279766 2.51672133714557 8.91663740859191 15.0758640506131 2.27475483762184 2.20196259135135 2.66168316729498"
"a21p5. 0.33491169849055 1.78479163761417 1.16688360132802 0.523401472842016 1.13661447535222 1.71374171431384 3.17929380231184 1.24892609852459 12.6271160342045 14.2648379764693 1.41508407386745 NaN 1.36200136868725"
"a21p4. 0.6113061253158 1.82089107052409 0.78953094710241 0.533789807606323 0.956968831848587 1.37896597445517 3.64789568675484 2.24178001267347 9.81955623719325 12.3096103637257 1.34810834938669 1.50638814247293 1.49200784977668"
"a21p3. 0.998689290803281 1.97053395393965 0.457624573651593 0.55859021287983 1.29564193601457 3.00223727041913 5.31822951292581 2.90172861130587 11.3560830944551 12.9951323676375 0.574940613502886 1.75493289587356 1.17087924475705"
"a21p2. 1.52506715112616 1.06324201802936 NaN NaN 1.89426924633163 3.97817883637076 11.9958688958808 2.59598592278826 12.6365714521126 18.2394200951185 1.17131429895609 1.2094345439522 2.24036436520771"
"a21p1. 1.38098780607548 2.36844268325851 1.65875367126443 0.648316188937167 2.78971559492548 3.76534345565773 2.70988239951646 2.48750737786019 13.0494176147002 23.2117702098268 2.14003553902987 2.13628221763006 1.76660135350353"
"a3"
"a32p5. 2.8241397895995 2.81876849618973 1.08717849588689 1.20297282736292 2.67493307137828 3.87136635446074 5.66635387747182 3.54029678407907 2.98053563293983 4.36692562312448 3.19517910355047 2.76237183095964 2.43205504199689"
"a32p4. 2.4357252748102 2.79818683126652 1.20805074495606 1.27278893992174 3.13804055429277 3.76284904076936 3.72659199614243 3.71090223363371 3.73752556069963 4.64445029524329 2.18987483368366 2.47054374184158 2.52649419463954"
"a32p3. 3.38156380296878 3.11225212944785 1.20036833624445 1.59640130612711 2.20257010489626 2.65046356270872 3.56038069369153 2.59166902580365 3.56911827157174 3.2910028037267 3.73629302762627 3.37419873379577 2.60878490863518"
"a32p2. 1.93722055668004 2.04886291798064 1.29397811878222 1.1320893575887 2.18322442907954 4.7144075054737 11.7475192272664 2.57993283612465 3.57291976944302 10.0366410978406 2.09120147056804 2.33573875430097 1.78554716730261"
"a32p1. 2.2825369268181 2.61635888766721 1.37446443725112 1.74474178163346 3.08162197447041 NaN NaN 2.85934484751877 2.90395353533967 4.39963760122511 3.47896014686936 3.66267862686783 2.15440228291463"
"a31p5. 2.14456535553214 2.84164697965265 1.10702477830559 1.09462063107954 2.94519166327685 3.46123942183823 4.58115086055022 3.53843043613878 3.92260465182267 4.50784448849223 2.10340734127288 2.19499618244166 2.4573811484178"
"a31p4. 2.083894138735 2.79477560114293 1.26403214137955 1.57484471243175 2.96905733684406 3.66548862932967 3.64085798612187 3.55897527713731 4.95050444707422 6.43006171039295 1.96097389898288 1.69512904726351 2.55624986940939"
"a31p3. 2.32854425866553 2.69066840303613 1.43252356166989 1.43661224514317 2.67310944688781 4.74733294034514 5.83487697792614 2.449239736358 3.0421082275861 3.76576534689935 3.09274071028099 2.17500919381573 2.12495974443218"
"a31p2. 2.33531667781645 2.84856907945341 1.17678672496677 1.07041214264734 2.06668512744829 4.21855933699857 10.7624220308142 2.47111342769403 3.64174965256488 8.86688045931185 2.78630070159648 3.51924369884394 1.98542230432655"
"a31p1. 2.60095896251031 2.79029715788579 1.5355040922997 1.46064717529863 3.15280223289872 NaN NaN 3.28953911895825 5.2723912053379 5.87543018238987 3.66330042881209 4.19655243029838 2.34084669954949"
"a4"
"a42p5. 6.4872079449953 7.62361986670226 6.67291125152652 5.19647087705173 6.41973645766361 16.8731084271998 19.9416611039239 11.5733699868299 16.857979633961 20.0724437043079 4.83013258677408 4.90180681210584 7.11577284207468"
"a42p4. 6.36893868587466 8.08428776992363 6.37448544672285 5.36456925554611 5.9758027889059 14.9691906367181 17.1472393274358 13.2524228826275 15.1276794147992 18.5442869446084 NaN 5.41330959840232 7.64416329301682"
"a42p3. 5.44565158979488 7.59869648761447 6.05746718378347 5.04981562128032 6.1035781429506 15.2933469564444 17.3141000937128 11.803543234311 15.5362274039891 19.2195787314236 5.55144288582228 5.94595482168183 5.88617398764282"
"a42p2. 8.58047058592935 7.3039547609911 3.96890532551404 2.46538613186693 10.7754494615921 12.9411823441635 19.6729580790346 10.3075433463352 17.1540868062491 23.5452941498363 11.7313626007196 11.4024731448063 3.14088111324337"
"a42p1. 8.89584323872067 8.7917772671376 6.78409461168732 3.79264623868383 10.2711125461417 NaN NaN 8.80715972150182 18.2044634779999 19.8364076809101 11.4980087217305 11.8016259012456 6.48433664643594"
"a41p5. 3.98541207531544 9.13744806267168 8.48591354749652 6.87727277969832 8.41721404310019 16.6001972910162 14.8069155075871 10.8328227111071 17.1444571689123 15.5969023933285 3.65651455586301 3.9830422559956 7.03478881636375"
"a41p4. 6.02875636244536 8.60119458807878 7.15473834100943 5.88176715297609 6.11530527367094 16.3575432598175 18.7743125188982 12.0561617125782 17.7882509992967 20.2933707533017 4.68367889491848 4.98906009374858 7.80621653114796"
"a41p3. 5.54212419928745 8.59199424719633 7.33936560444077 6.06520202553605 6.81392308219779 17.4176491832769 18.9995873210219 12.3610553481834 16.1091782516591 19.4678436035056 5.06224318877119 5.83182449624827 7.44224446855641"
"a41p2. 5.82127188912426 6.24985825865611 4.14869807975541 2.87905959217069 11.0549566912061 13.019727694553 18.3414907340056 9.19310257514073 15.7169150393246 24.3103797029584 9.61044583722485 9.53603657348481 3.15545798350267"
"a41p1. 8.9189754745425 9.09629120767601 6.72006738419421 3.77151006411855 7.81148735653711 NaN NaN 5.98374440306772 16.1968553174459 19.9643480801873 11.5355210797034 12.0549488340014 6.52254745556124"
"a5"
