result
"'SpineBase','SpineMid','Neck','Head','ShoulderLeft','ElbowLeft','WristLeft','ShoulderRight','ElbowRight','WristRight','HipLeft','HipRight','SpineShoulder'"
"a1"
"a12p5. 0.17297699394404 0.211950357991713 0.327301658684213 0.458835896063145 0.203246405503225 0.216524981572021 0.340980266896684 0.174638970565302 0.251886608325746 0.178936544877578 0.170601394145144 0.122540719610262 0.125799497007441 0.163212593669367 0.291674857901773 0.217427484946995 0.089971178160193 0.234774059705043 0.216403017720731 0.259020027326985 0.420295998938344 0.260220917003999 0.230031794451841 0.551598255417719 0.818098626988912 0.279284278234272 1.7772224206254 0.908302662164755 0.4706418311694 2.21943100842389 0.137882146916606 0.231577953413203 0.191149921808601 0.184299641976791 0.198930336793952 0.478088554181582 0.212465454970098 0.217397838384558 0.264703631800694"
"a12p4. 0.223779674282851 0.175755760336915 0.170295394344674 0.699395972224148 0.1497114181807 0.215419100851042 0.287159306552548 0.301280466215454 0.1075248703126 0.156739205429651 0.276811230127336 0.15659181442962 0.102554899261624 0.216047137272745 0.150318531654 0.234189257614473 0.138432269384792 0.228127198707998 0.205541802886554 0.425697783197241 0.289950389125087 0.58252080067442 0.265860641535679 0.552632555547989 1.17011603223073 0.365469280529263 1.13910696882809 1.46500385896203 0.717654163739787 1.77362709102441 0.208041172956771 0.200155153204907 0.19827623666602 0.190565661864126 0.156747329064354 0.528653218979202 0.124159458030054 0.245313458574659 0.22332090322598"
"a12p3. 0.159355805390438 0.272486748639231 0.156060055192839 0.585959527590594 0.193289535639827 0.259962125519891 0.303347635900656 0.185226099688893 0.110309255591572 0.17460912471222 0.175968727987572 0.122853033977848 0.107753728790203 0.143918496992256 0.184748929412711 0.142873033738999 0.117112941857612 0.179680214144006 0.151786520790471 0.243078538349614 0.336259429776703 0.468953639335515 0.26063623385812 0.421983279098425 1.06967436269251 0.27248549972242 0.507172178381911 1.16985245215219 0.534272439911634 1.65550604044294 0.147003094459385 0.302523673279361 0.219617402545631 0.13281975497588 0.28363475610218 0.580981079374773 0.152804514439137 0.15197538407839 0.313466209639037"
"a12p2. 0.274563169518814 0.586019840052961 0.326512509584027 0.333136100467786 0.293148152468533 0.39345922307673 NaN NaN NaN NaN NaN NaN 0.280202661025052 0.125015424729301 0.140212108808662 0.276955877146658 0.106610916959546 0.0676950601505213 0.218339015416904 0.317157629775111 0.173533738838665 1.00995730574658 0.414367555965412 0.67883046891981 3.42373112598994 1.21890921319583 1.67480035609766 3.87257918130581 0.738290843746438 1.5064727066345 0.263300080988863 0.651462225056136 0.255918933030377 0.317149278598841 0.481438166720681 0.38527251382811 0.383481885457926 0.100535565299177 0.529782041231919"
"a12p1. 0.278652071633118 0.294748689591362 0.251963957056069 0.551868849814975 0.132279999943438 0.38745299801017 0.244294564430246 0.282139188085155 0.231793101100413 0.129520538179221 0.195910337120997 0.0832292694658925 0.173530219132241 0.196854753205651 0.4112634225675 NaN NaN NaN NaN NaN NaN 0.382895351228226 0.376185388273961 0.686634738201074 1.10843768478743 0.400951099181504 1.0752285229563 2.52270254642315 0.312552095952144 1.21805898628041 0.226236395781234 0.328300221497306 0.55055064637855 0.225955643954398 0.288917456954031 0.805514124464221 0.176271216629236 0.174620781252106 0.437520003882069"
"a11p5. 0.133020953683327 0.268634722711727 0.256590788228824 0.362732908589577 0.235498424017814 0.19608297853283 0.333266061194228 0.19774442970183 0.226039964370049 0.245183244278883 0.215453320285413 0.0741066598332007 0.234484988243541 0.182719391195269 0.292707626291155 0.163665909344154 0.110034733686749 0.218290818864454 0.185129403029886 0.545356650242284 0.343998774691854 0.55110700207057 0.263207313153901 0.652398884729202 1.19191781421564 0.149971597580069 0.831555112049744 1.61751628821736 0.497019904401685 1.59654159326309 0.109296806734951 0.304532066685349 0.220213511517607 0.131050214808553 0.312319139038914 0.531999030310166 0.20171570413 0.159761561626733 0.198434175763576"
"a11p4. 0.212370950715028 0.200373754780058 0.321711728357704 0.459636865529364 0.126382237743035 0.219240741438912 0.311426436637422 0.18622045129387 0.237867366681187 0.155298670575018 0.133903793853551 0.143821536001688 0.233333074587854 0.0978421845561902 0.217131913102252 0.187585190439067 0.118802966191287 0.151556193271294 0.154282301523815 0.410085520825397 0.247114292197929 0.36108338464866 0.216085048246577 0.324389627773804 1.1765356011215 0.273476490531812 1.46793542176387 1.2025094141603 0.889728001652559 3.83692421146945 0.19284676496684 0.215682137436291 0.181306039414057 0.210400577921411 0.169126916244976 0.528725216980056 0.198943054205416 0.27320642942063 0.110425173450079"
"a11p3. 0.14110521899209 0.208923447123767 0.247218827709471 0.372447597114104 0.235502135503914 0.243528005815729 0.368246603515633 0.166669586591748 0.118270616834323 0.193525017031854 0.131124377952421 0.139935779628862 0.259717374306822 0.174621623334872 0.225953220256694 0.156618748910287 0.137716990576158 0.169812186195844 0.177974399497177 0.631007057105705 0.95989043081648 0.488609828511166 0.315432783363959 0.339020117906068 1.05697069503793 0.257385788384119 1.24331564912152 1.31439757053061 0.445012816161267 2.85697397493838 0.11559586895845 0.232685332156641 0.202810983633722 0.140441671096613 0.196585551629737 0.530571604632236 0.237904161309987 0.278637204584809 0.149459196311573"
"a11p2. 0.488060780779242 1.77724228701756 0.281780516374466 0.425620169141065 0.942386374685893 0.339118342941803 NaN NaN NaN NaN NaN NaN 0.244310428869592 0.16717383140611 0.0710811980984597 0.385544199946136 0.166193896136829 0.115962286500783 0.353989227909796 0.69412440994448 0.301014287779217 0.44564187582359 0.669780326174302 0.652919765827417 2.08883634851304 0.439558671084827 1.46577200490549 2.71372797889739 1.02523594165298 2.49711707173818 0.390064197517527 1.7286129991721 0.220883776242256 0.62261568900597 1.82345679632561 0.327860142796733 0.386052645987029 0.209315675787313 0.433317454334322"
"a11p1. 0.481910925056368 0.392295044651098 0.417724297449132 0.648453490757895 0.200288340710216 0.482333890192995 0.403124988923669 0.248713273623162 0.232613126999437 0.298690813314935 0.124329500171047 0.187976614813093 0.257342839111265 0.256252817082794 0.357586932200457 0.34858353672497 0.152072663176042 0.177366262946718 0.567944010456569 0.240172738291147 0.309319147478054 0.281411826119661 0.90895458001194 0.844502950730959 4.51900794906308 0.580333226882456 1.8585121570984 3.03501469176185 0.675688584243768 2.19304284102072 0.123699431525206 0.304227978270431 0.461679462051532 0.233927427383624 0.275188517772556 0.72110556376351 0.412009623300968 0.204183830830237 0.300332618124249"
"a2"
"a3"
"a4"
"a5"
