result
"'SpineBase','SpineMid','Neck','Head','ShoulderLeft','ElbowLeft','WristLeft','ShoulderRight','ElbowRight','WristRight','HipLeft','HipRight','SpineShoulder'"
"a1"
"a12p5. 0.990186583830991 1.39059287459143 0.944040783968773 0.633344236652513 1.03012154230172 2.99017118027639 4.41738376325588 1.13189894405503 1.98961416167589 2.37734263645434 1.2405711235785 1.1459648603514 0.536352778353658"
"a11p5. 0.49256362569669 0.797599295651851 0.764538917161699 0.496136102261042 1.08983064015374 3.38209339170686 5.73906172840694 1.13970007704254 1.49014079726501 2.72009145044193 0.965624994000659 0.813630198755535 0.899199304650934"
"a12p4. 0.635167894960847 0.908487667773468 0.598893408802601 0.588527084103955 1.10602598869393 3.43588379402277 5.33786621516924 0.974258139217696 1.61113027303531 2.46591813290014 1.12159773967617 0.818785704907485 1.00653171242971"
"a11p4. 0.804796939719663 0.65285074949614 0.4824251924981 0.494351840306312 1.17533123341565 2.7532464533347 5.441780439308 0.892928510401504 1.7003956805328 3.72910535277831 1.06838538342995 0.998171497277055 0.554348586802945"
"a12p3. 0.643609434347039 1.21784265534919 0.720526090855681 0.690838629576475 1.4965434003546 3.3971213293046 6.47753755752973 0.833254549766755 1.17338501209691 1.97220102829588 1.19696457159819 0.892590655503771 1.07409070446526"
"a11p3. 0.940077629815691 1.13475568370646 0.471583974434496 0.670210180953308 1.27501812379708 3.34176174098943 6.29455867215759 0.82303426899013 1.58988897453816 2.59254499964767 1.29911429862717 1.1251779939019 0.986600082997787"
"a12p2. 1.65402633602797 0.691276098084833 NaN NaN 2.05071984207333 8.14547535003368 9.98074466826313 1.65083987415422 4.04612671268756 4.27213008292182 0.761955668248599 1.18812172432881 2.00668417727818"
"a11p2. 2.31207307477289 1.39300720074215 NaN NaN 1.44422044166787 5.82160702448067 8.89745095493945 1.36625708671896 2.74738655640419 4.14565311858454 2.3112116646099 2.6323339865718 1.79744838249863"
"a12p1. 0.635407400267021 0.988210941484206 1.42853736334725 0.531150182602523 1.31932043350836 NaN NaN 1.46587654049543 1.80286263413867 3.44913580378766 1.71550426671627 1.57568464358228 1.38222009337146"
"a11p1. 2.25774534968638 2.13168574879009 0.76688022762727 0.801771819100952 2.68734577781551 7.99555929792286 8.32401504259821 1.53847398270244 5.33999807372583 5.00467731544563 1.94958466665399 1.922028532234 0.60507543489328"
"a2"
"a22p5. 0.638456177326786 1.36240872948857 0.722813865751864 0.537266535492395 1.02818922935218 2.5610421781367 5.41296566075023 3.53251664057644 12.1449495967992 14.0673685272427 1.3127227662386 NaN 1.07557413299044"
"a21p5. 0.304805529949559 1.86012496341595 1.1790129291759 0.484835917230126 1.17918937548541 1.73196739527568 3.15735403391153 1.33953195623803 13.9919493726801 15.7376907783758 1.41748623474466 NaN 1.4061546710901"
"a22p4. 1.42575732300203 1.28919825839939 1.25126386120751 0.48704417782837 0.89515875877211 2.05634595073699 4.2212617721523 1.93233714398049 11.0037272289721 13.7462150874514 1.75045058096931 2.65145308387068 1.73863027176983"
"a21p4. 0.6113061253158 1.82089107052409 0.78953094710241 0.533789807606323 0.956968831848587 1.37896597445517 3.64789568675484 2.24178001267347 9.81955623719325 12.3096103637257 1.34810834938669 1.50638814247293 1.49200784977668"
"a22p3. 1.40348474820165 1.643135088507 0.784279939537486 0.762331778961002 1.09199363088316 3.20435984915299 4.75980257879796 2.48760468156587 11.0508207653502 13.105659104193 1.87523379365187 2.39728012480041 1.61583644844659"
"a21p3. 0.995071137895678 1.96431856745686 0.452749086001052 0.555418431055576 1.29313657239783 3.00516715874524 5.31867955151465 2.90241273109936 11.3357964567022 12.9692636037342 0.572349554791836 1.75278879547837 1.16683579257108"
"a22p2. 2.34953151946291 0.785473902340469 NaN NaN 1.59517258619905 7.05548398510173 8.01240868474693 1.7742869326341 10.9630794725386 16.4753214471386 1.26002494084148 2.07270430124474 2.75258319735504"
"a21p2. 1.5215918855964 1.06510501141701 NaN NaN 1.89771951655784 3.97454490091542 11.9916725619188 2.59861088943903 12.7792057633894 18.2394200951185 1.16200438504282 1.20126596967199 2.23307859211727"
"a22p1. 1.16886724961642 3.71607743179829 2.10076025296916 0.569718961089456 2.92061648037001 8.17346867884415 6.82704299086997 2.44200125757255 8.91663740859191 15.0758640506131 2.26558897859763 2.20204037347544 2.61160338411791"
"a21p1. 1.35769603815504 2.33507158593082 1.64430409362688 0.626434033480133 2.77021727449414 3.74920635477154 2.72902880560527 2.4866253859858 12.8258779716319 22.7786080498218 2.11006949033229 2.09678160337463 1.76806207827691"
"a3"
"a32p5. 2.77104665073546 2.80482973495678 1.08077553548798 1.17390319174062 2.63651465698028 3.85642182598824 5.67333792724018 3.4979002987682 3.00553864572093 4.42881996801841 3.17030719142801 2.75733674660219 2.4155100315981"
"a31p5. 2.10581092813142 2.79851098594988 1.10906902972285 1.08865936960154 2.88157996165609 3.52842491626949 4.67571551557352 3.46337689871673 3.90730091697976 4.57251420088202 2.09637370222834 2.21753136655051 2.42628000737501"
"a32p4. 2.41729104608498 2.75449240626867 1.20739101596911 1.25200892004089 3.10912001527167 3.77663905728606 3.8000805185462 3.67827212083942 3.730854451359 4.69278425994963 2.16376196675318 2.45430620018939 2.53103696096417"
"a31p4. 2.11967993447004 2.8442814134113 1.2694011300159 1.60011521296786 2.99334930661415 3.61621669888236 3.56970078348683 3.60558362306633 4.98364043404069 6.38914337696181 1.98713468818756 1.71111297232354 2.57903971982955"
"a32p3. 3.35453523188686 3.09854579124273 1.20132991716766 1.59225935725193 2.19254348144245 2.65727687017095 3.56224315292696 2.5722442892604 3.54614147272043 3.2835691591109 3.72259174870253 3.36767996756167 2.59925763775428"
"a31p3. 2.28270065329105 2.66184041532891 1.44841530013504 1.40883942121184 2.6459657034412 4.72397912446867 5.83590962982568 2.39686789799344 3.00364647822665 3.76391690274759 3.06251259937821 2.17400143135881 2.10563391750844"
"a32p2. 1.92350666076798 2.05256490830208 1.29888350867235 1.12492302518016 2.1808971060792 4.73338113772266 11.7631462956286 2.57661369628263 3.56693401760311 10.0366410978406 2.08560720163591 2.31356592203639 1.7950098426218"
"a31p2. 2.31742621688016 2.82690942602317 1.17496682592295 1.07227697200438 2.06820720740823 4.20039968837292 10.769860480491 2.47765666021743 3.64250364081977 8.86688045931185 2.77541991360051 3.49008598924102 1.97830510615558"
"a32p1. 2.24916571651627 2.60417611168993 1.34971501789058 1.82853276292123 3.1535697522116 NaN NaN 2.9602866052385 2.86341503283675 4.19173610948083 3.39480567982627 3.57313251643083 2.18367862214948"
"a31p1. 2.65897829532041 2.82011583810527 1.52604452039153 1.49050165240509 3.19799532967948 NaN NaN 3.35517006181555 5.23694500721303 5.77449191477032 3.68141436828717 4.22181683909819 2.34937056427211"
"a4"
"a5"
