result
"'SpineBase','SpineMid','Neck','Head','ShoulderLeft','ElbowLeft','WristLeft','ShoulderRight','ElbowRight','WristRight','HipLeft','HipRight','SpineShoulder'"
"a1"
"a12p5. 0.266254725667787 0.245669302184268 0.208419346216884 0.206422837404002 0.251129005833407 0.187944915510077 0.298082448207318 0.380474299873623 0.677816526160541 1.04441885265273 0.212722235123176 0.324602389846537 0.190686390691349"
"a12p4. 0.093606003379459 0.515614500097121 0.24784102070337 0.176203955378012 0.161628204885142 0.194747979240358 0.236319480061525 0.419573647953442 0.884058154373729 1.26204266344414 0.206824201959617 0.321072864071005 0.155835264464625"
"a12p3. 0.139273456224573 0.468990349752766 0.304345444660477 0.14136288897977 0.168820961619794 0.123081239494953 0.211567258428561 0.225550357114265 0.650471036921111 1.10981157465888 0.256382158818944 0.376229737629719 0.245282416506861"
"a12p2. 0.478426752618387 0.272224761030921 NaN NaN 0.286531520641527 0.215407347519965 0.199920981260387 0.762409753914057 1.40876445472862 1.29380205943466 0.436394130562946 0.484110315400686 0.547411077960486"
"a12p1. 0.33691873931929 0.269253026830538 0.35545826047821 0.154208734541683 0.158738732322645 NaN NaN 0.67842757765653 0.921056948817219 2.12574459417095 0.610788262018027 0.862912339347109 0.44179669275634"
"a11p5. 0.151045655215454 0.166226791951556 0.183313513293385 0.102634256938786 0.280964895127929 0.154396354191221 0.247831175216845 0.344360942547402 0.821566676587764 1.5940428603729 0.2930476500658 0.412300081487942 0.194477054073403"
"a11p4. 0.22032958110036 0.384356106268201 0.19871752338518 0.106157191674602 0.178041344830094 0.0740052517736124 0.147361200816079 0.40653160092845 0.969170043403128 2.14790136688042 0.182225227338024 0.3601251426401 0.153126094547969"
"a11p3. 0.128121369618178 0.325022876964666 0.15651513792494 0.130813444879926 0.193431628182281 0.127817951901175 0.801985540484269 0.28641847901947 0.829676513396613 1.72495716222068 0.277697715476815 0.347296427379155 0.111867580784852"
"a11p2. 1.04810351801392 0.292110021222925 NaN NaN 0.242815835472007 0.364718557024591 0.595842561698239 0.464232390118689 1.52622777847397 1.25216400704511 0.919287494282455 0.955617114618872 0.551029455334012"
"a11p1. 0.549728771949139 0.371356671878864 0.247768366511663 0.165600669485986 0.367077602683522 0.340835202438443 0.562848849227019 0.780432100067298 2.40986689135619 2.02382161212271 0.461159873942298 0.77431124325758 0.167718842741573"
"a2"
"a22p5. 0.207103008306524 0.3123458361308 0.220130808671835 0.218282453939583 0.344003322508693 0.149937165457225 0.437110949924324 2.07749918279136 7.22966344861665 8.68127908030801 0.128386269744315 NaN 0.207429639540174"
"a22p4. 0.172721253751453 0.182142893626923 0.389930367654045 0.227596875926845 0.272535955361309 0.199685268742805 0.268136727927007 0.601397726600461 5.74506394069387 7.27029234531602 0.119353698868176 0.162032267789505 0.300586041971962"
"a22p3. 0.320857059626238 0.257772627420944 0.255800903466896 0.331219542948807 0.288880863641426 0.164020592910404 0.259619848857862 1.54089068831224 5.71660430088688 7.37650005598375 0.304534967484523 0.454230341236976 0.32808356392398"
"a22p2. 0.814141189816408 0.369207212370348 NaN NaN 0.266659044981987 0.312223552538721 0.27945522368703 0.591870134639453 5.39349705544771 2.57853372225861 0.449625461208701 0.564220267254927 0.405250626764401"
"a22p1. 0.526542807997465 0.641184835649708 0.362115359187242 0.0998786633171572 0.616069200782309 0.199511123913851 0.228891568386348 0.85132304147697 4.22529097907798 7.48410523170047 0.372902765946716 0.488900295076511 0.519266974800336"
"a21p5. 0.172219541380157 0.3165209227195 0.270475508136191 0.211530468176658 0.276014420776359 0.129038531630719 0.253789887152363 0.657922347690679 6.91995228227878 7.81010099765271 0.103447727005242 NaN 0.269867684685039"
"a21p4. 0.163038951833512 0.31092821973377 0.141509874259493 0.16457661696349 0.237405253011775 0.239447516223756 0.298384143810422 0.878818102726093 6.89969200933692 8.35037833120381 0.110115502494844 0.230760195301746 0.244038814059174"
"a21p3. 0.251472432996029 0.256575401666278 0.205256260799531 0.210265703440999 0.201003381545985 0.1251971548313 0.142853173293904 0.887686417492465 6.85410247142165 7.61974915847389 0.0993457646785159 0.126982500105935 0.147823839420057"
"a21p2. 0.345840346890528 0.298281592493886 NaN NaN 0.503856415132088 0.393360473016199 0.299770840199433 0.853479154153948 6.61371923137664 2.49630482101136 0.592728471757658 0.566042444768821 0.513447574476318"
"a21p1. 0.442566316057967 0.699783928652083 0.307223068055037 0.243980349644363 0.721786579190718 0.505999469273517 0.451999447618415 1.19768488210302 7.3971561058017 7.92936537464561 0.555033359735135 0.488132330981923 0.382147623549602"
"a3"
"a32p5. 1.60252937983755 0.913156012214245 0.436728132941342 0.725041253946499 0.989622698395396 1.17639543297875 0.624826180847206 1.59313081380731 0.821035274238496 1.41688449581014 1.29524864892521 0.799530571222204 1.21153240935313"
"a32p4. 0.798393154948205 1.28918078223581 0.51055397740056 0.640841340599045 1.0455051740101 1.21939782048129 1.79886779804774 1.36771570601848 0.6022303068195 1.00452095093776 1.25225756519455 0.564961238016876 0.581136918329592"
"a32p3. 1.95038748776266 1.14411994468075 0.46600233065894 0.82818684935935 0.818252445133589 1.34555058382539 1.2043069078871 2.02654009775449 1.60691242752128 2.22303264216932 0.855066032212738 0.663546030992346 1.39472722252704"
"a32p2. 0.583177810607221 0.74768447008418 0.394865536251276 0.367235352390107 0.788589762852752 1.02208006303605 2.35450860715147 0.773982418338116 2.03415666552461 1.40001957199177 0.746035700257147 1.24121878377148 0.76847703729917"
"a32p1. 1.10856725716022 0.798034387928113 0.3657112718969 1.07034895343263 1.07242356199796 NaN NaN 1.47038493297694 0.982577045051447 1.32370565629113 1.1719498617403 1.16059777806502 1.02248608394752"
"a31p5. 0.91796697726567 0.868539380406238 0.510968536081576 0.457918234178391 1.00965371109686 1.24606643870056 1.77941254521202 1.50054633214366 0.559638927402995 1.06449278290609 1.2798672697889 0.358921536690871 0.932639041934181"
"a31p4. 1.30271739598253 1.12750136798313 0.352732128385384 0.666030381300672 0.793065918380028 1.38798471801769 2.286111325936 1.50199167186621 0.917251197211369 1.63181318509059 0.862221345083341 0.534805684315205 1.04431499508098"
"a31p3. 1.60767922989823 1.00923133325969 0.569261672993035 0.647516918026546 0.710426808416563 0.692054600414665 0.632461212648308 1.730020771697 1.27445383496083 0.922742136099466 1.0527236158722 0.753048223263039 1.03809490904441"
"a31p2. 0.915008706574175 1.01182724218643 0.498385872022221 0.340947101576593 1.12354242012516 0.784096615559983 1.61690642511144 0.761632378901907 1.54031437558032 2.24762643364436 1.17921836304095 1.18357590560579 0.770997426413902"
"a31p1. 1.17008465098613 1.10851970699554 0.406813767970807 0.900822926019824 1.32761881462194 NaN NaN 1.98405986324007 0.864058721687258 2.05660797561947 0.813217761259981 1.05523078678419 1.28099768990277"
"a4"
"a42p5. 2.16689441901477 4.91988778623399 4.66853170682724 2.86155655829466 5.03569560177935 3.88371897125465 4.39599803047428 5.83437533926355 4.24479878024154 5.38245893026625 1.66997638600205 1.94967691473693 4.82436443667162"
"a42p4. 1.8511281663316 4.72850987914667 3.72604245409186 3.14015867815492 2.80430368065415 3.14811646949881 4.03950805152046 5.13932964164043 3.95014974400323 4.52470254550406 NaN 1.88101426720592 4.5783134818"
"a42p3. 2.28097729613942 4.36655532371853 3.27543544595685 2.82886287019962 2.96777877399299 4.61237278740598 3.59768007582247 4.71383013098216 4.76769380640977 4.73828655408933 1.62293348231507 1.90668772891468 3.18027090367368"
"a42p2. 3.46018476457354 4.54089491532493 3.3675679867567 0.673031982741318 8.21952129001594 5.54115928623215 6.32632234571177 8.69667430435661 6.05226733760943 8.90513697541799 6.05497715153241 5.78599982503299 1.76322645043772"
"a42p1. 6.22157907149465 5.11184039844849 2.83231148704147 1.72659074122294 7.00321837030195 NaN NaN 6.35536527889357 9.14713880144861 8.72777560466495 7.60087767535474 7.71279383315222 2.96277519965722"
"a41p5. 1.95490976519469 6.21793599488394 4.53652535186784 4.84628078733719 5.06409551588826 11.0705246190131 10.0585936773185 7.18170132953669 11.355209599305 10.03625981706 2.01097710766269 2.24091385829118 4.29864954673988"
"a41p4. 2.7731073829166 4.93649026771933 3.97273086103652 3.19936832288122 4.01826415416853 4.53298297655644 4.6504381465504 5.90220122232804 5.33750000848565 4.97689832700714 1.81340282151083 1.91006432355512 4.88059842041887"
"a41p3. 2.35261491921502 5.04984886938067 4.17937608032776 3.33083601455614 5.12081724459311 4.53043540293996 4.52396593598146 6.34756207704788 5.1728689059045 5.28691207827941 1.44695299699402 1.67491321670424 4.29240020802521"
"a41p2. 4.91194481093868 5.86144770509899 2.87906169654358 1.07979384333741 7.97880575974806 4.34397691297408 6.57289947647968 5.94875658626334 6.05653944753441 8.59505916256269 6.52040688558716 6.71419810397249 1.93134006339055"
"a41p1. 6.42632772223579 5.45671358126544 3.39565673354876 1.70685824392538 4.9853529993075 NaN NaN 3.64183828107662 9.111721470231 9.86826308630048 7.78730108085465 8.00503603451013 3.04907905686866"
"a5"
"a52p5. 0.637807568833731 1.59079706260326 1.13068045287307 1.60731716375268 1.83515508621925 1.92898524882194 2.58733142262085 2.42139316978513 2.13179570986683 3.88618936418652 0.82591606743227 0.577152039556184 1.35269781365034"
"a51p5. 0.790517009298072 1.35437025340188 0.95267060866552 1.29993173787245 2.16782868447423 1.27852737319443 3.01530698323991 1.90966865649035 1.62114345784785 4.16878666205168 0.764111402215902 0.632838992407283 1.34318994824936"
"a52p4. 0.626186493321376 1.40392308668737 1.10703933111843 1.53265203698176 1.59868020688542 1.65820336820903 2.4196983982616 1.80591106600537 2.06557195030838 4.07276658797658 0.787572039202476 0.861964911779062 1.22146402371135"
"a51p4. 0.9665549548525 2.16611934077445 1.24312068643496 1.21215730733766 1.93673647760662 1.63326024775127 3.15166761096861 3.09578369102988 2.59932091309684 3.63727340798935 1.21184651758835 1.10721544082712 1.45202922633625"
"a52p3. 1.07970867124771 2.75442018226399 1.22118726913458 1.59564780633665 2.40221919330498 1.51558972173445 2.46740450800021 2.21357012435515 2.06361302145332 2.75612554141416 1.10139934807984 1.07544581037247 1.81027536009513"
"a52p2. 0.99908980809536 0.823966357477789 1.23019388192529 1.73008764646144 1.84656572992351 3.20954621887741 3.15250085106393 1.28923812829983 4.07124975415822 6.86174162716434 1.06974868220559 1.06317661761819 1.51768106682404"
"a51p2. 0.795584646676806 1.14625102161932 0.987482333564903 2.7390964575484 1.47261289484117 2.43840054333561 5.335351156337 1.02237555331042 3.86928209970695 6.88322548928172 0.755990487076094 0.851986256062589 1.71981829127254"
"a52p1. 1.18527887197708 0.723537844368526 1.25549468363434 2.27729427900509 1.53737432648647 NaN NaN 4.30481211770334 2.59708245022593 5.66595787666503 0.911401845674367 1.13523086824926 1.13925444904011"
"a51p1. 0.844866522474875 0.686229278973767 1.02919986106834 1.76128350413047 1.61483541373173 NaN NaN 3.6917084742001 3.41455236212805 8.29515481062451 0.704840087665663 0.835723136386511 0.94400889344236"
