result
"'SpineBase','SpineMid','Neck','Head','ShoulderLeft','ElbowLeft','WristLeft','ShoulderRight','ElbowRight','WristRight','HipLeft','HipRight','SpineShoulder'"
"a1"
"a12p5. 0.995763686756103 1.40725464822647 0.961909704218695 0.628497373287922 1.01995017018732 2.97651381371453 4.39319499996625 1.12407541516178 2.00510542856994 2.38386817243361 1.2259167848762 1.1328227863109 0.525897712718114"
"a12p4. 0.636782730910469 0.925266514585477 0.610047008787577 0.577691299044287 1.11923414646911 3.43206946922591 5.33258976084575 0.979055061489782 1.6954761824904 2.45706899813415 1.12683331869069 0.836306807472927 1.01364312430652"
"a12p3. 0.648046052425155 1.23715800378742 0.728350341708701 0.687520634034688 1.5032273697292 3.40365029040833 6.4861512699167 0.835882115891469 1.20211466061997 1.96442248536884 1.21198571582313 0.916970282734322 1.08075010664256"
"a12p2. 1.6740459021481 0.660545476151885 NaN NaN 2.0689567645404 8.14915495463499 9.98383495008254 1.56638925382362 3.81238771301629 4.27213008292182 0.79528952566407 1.20674219952881 1.94591453288833"
"a12p1. 0.594947941430767 0.98109238465827 1.38129410462895 0.524769947791429 1.31089529165841 NaN NaN 1.41009040008023 1.79109915800491 3.38909764788676 1.65301597139655 1.48864690176146 1.33857490403955"
"a11p5. 0.489022788218033 0.793391714576537 0.762784733623229 0.498881260053141 1.08357185414688 3.37718994033169 5.72393125793583 1.13473447825012 1.47560526476169 2.75002607736505 0.949431230556558 0.788858231168042 0.889899573083738"
"a11p4. 0.825863049074828 0.640310444209009 0.471390801397624 0.48960045261621 1.18497572781033 2.75938368861573 5.42551853324488 0.950191535482037 1.73607307812194 3.68450775725412 1.09864823412576 1.04009897392025 0.519326973071815"
"a11p3. 0.939818139864514 1.09768327327792 0.494160651246477 0.711808629934951 1.22314559009873 2.85607383698374 5.13173420498102 0.683624248867713 1.47832266611517 3.00015965866438 1.25414211517897 1.03562642892879 1.00395260238084"
"a11p2. 2.31721577390975 1.4346118866942 NaN NaN 1.4679785843288 5.94164694662765 8.93944204057914 1.35625058007039 2.83427989475457 4.14565311858454 2.29052456393869 2.60906614494704 1.71188183619024"
"a11p1. 2.20367580344192 2.10459990445433 0.810762198375758 0.783961118502718 2.67651229149792 8.01121698569188 8.34193005193429 1.58004076558571 4.81927159474501 4.86112207172906 1.82496495130413 1.70691372886045 0.636258605631738"
"a2"
"a22p5. 0.630937615267548 1.340748253144 0.70282607838013 0.523988727718157 1.01293425170778 2.55176400514498 5.41387938256667 3.42638797761503 11.5855706693854 13.4111839440169 1.30733450667509 NaN 1.06697478503307"
"a22p4. 1.42785348594393 1.28186708918747 1.25544709993903 0.485196992485943 0.9020240933267 2.06153142171676 4.22627427727518 1.91888539134224 10.8310114739731 13.5386028248337 1.75291634086621 2.65804181754495 1.73845532246217"
"a22p3. 1.39633696099305 1.6306653760278 0.778207718147828 0.755434089301592 1.08860404928376 3.19985438115323 4.76312550696391 2.45251279805867 10.8332917517651 12.822679669032 1.8721834914128 2.39395779902341 1.60454432392395"
"a22p2. 2.35065869852621 0.781026680811645 NaN NaN 1.59757332594601 7.0676539507916 8.02704308716843 1.76289917488062 11.0350496678871 16.4753214471386 1.26101389243938 2.06980591135212 2.74888635177613"
"a22p1. 1.16231347135063 3.78947857394486 2.1306909412951 0.564625452367323 2.97434897071518 8.17043905439981 6.8277608279766 2.51672133714557 8.91663740859191 15.0758640506131 2.27475483762184 2.20196259135135 2.66168316729498"
"a21p5. 0.33491169849055 1.78479163761417 1.16688360132802 0.523401472842016 1.13661447535222 1.71374171431384 3.17929380231184 1.24892609852459 12.6271160342045 14.2648379764693 1.41508407386745 NaN 1.36200136868725"
"a21p4. 0.6113061253158 1.82089107052409 0.78953094710241 0.533789807606323 0.956968831848587 1.37896597445517 3.64789568675484 2.24178001267347 9.81955623719325 12.3096103637257 1.34810834938669 1.50638814247293 1.49200784977668"
"a21p3. 0.998689290803281 1.97053395393965 0.457624573651593 0.55859021287983 1.29564193601457 3.00223727041913 5.31822951292581 2.90172861130587 11.3560830944551 12.9951323676375 0.574940613502886 1.75493289587356 1.17087924475705"
"a21p2. 1.52506715112616 1.06324201802936 NaN NaN 1.89426924633163 3.97817883637076 11.9958688958808 2.59598592278826 12.6365714521126 18.2394200951185 1.17131429895609 1.2094345439522 2.24036436520771"
"a21p1. 1.38098780607548 2.36844268325851 1.65875367126443 0.648316188937167 2.78971559492548 3.76534345565773 2.70988239951646 2.48750737786019 13.0494176147002 23.2117702098268 2.14003553902987 2.13628221763006 1.76660135350353"
"a3"
"a4"
"a5"
